{
    "$schema": "https://schema.management.azure.com/schemas/2015-01-01/deploymentParameters.json#",
    "contentVersion": "1.0.0.0",
    "parameters": {
        "location": {
            "value": "westeurope"
        },
        "applicationGatewayName": {
            "value": "appgateway01sdemo"
        },
        "webAppName": {
            "value": "sentiademo1"
        },
        "tier": {
            "value": "Standard_v2"
        },
        "skuSize": {
            "value": "Standard_v2"
        },
        "capacity": {
            "value": 1
        },
        "subnetName": {
            "value": "sub693hfel"
        },
        "virtualNetworkName": {
            "value": "vnet7436kh"
        },
        "virtualNetworkPrefix": {
            "value": [
                "10.10.0.0/16"
            ]
        },
        "publicIpAddressName": {
            "value": "appGW-PIP"
        },
        "sku": {
            "value": "Standard"
        },
        "allocationMethod": {
            "value": "Static"
        },
        "publicIpZones": {
            "value": []
        },
        "autoScaleMaxCapacity": {
            "value": 5
        }
    }
}