{
    "$schema": "https://schema.management.azure.com/schemas/2015-01-01/deploymentParameters.json#",
    "contentVersion": "1.0.0.0",
    "parameters": {
        "keyVaultName": {
            "value": "sentia-we-dev-keyvault"
        },
        "tenantId": {
            "value": "a25f0638-2b8d-427b-b041-eee1efd84106"
        },
        "objectId": {
            "value": "19598834-c6b4-42e3-bb12-1d3eff7a4107"
        },
        "secretPermissions": {
            "value": [
                "list",
                "get",
                "set"
            ]
        }
    }
}