{
  "$schema": "https://schema.management.azure.com/schemas/2019-04-01/deploymentTemplate.json#",
  "contentVersion": "1.0.0.0",
  "parameters": {
      "keyVaultName": {
          "type": "String",
          "metadata": {
              "description": "Specifies the name of the key vault."
          }
      },
      "tenantId": {
          "type": "String",
          "metadata": {
              "description": "Specifies the Azure Active Directory tenant ID"
          }
      },
      "objectId": {
          "type": "String",
          "metadata": {
              "description": "Specifies the object ID of a user, service principal or security group in the Azure Active Directory tenant for the vault"
          }
      },
      "secretPermissions": {
          "defaultValue": [
              "list",
              "get",
              "set"
          ],
          "type": "Array",
          "metadata": {
              "description": "Specifies the permissions to secrets in the vault. Valid values are: all, get, list, set, delete, backup, restore, recover, and purge."
          }
      }
  },
  "resources": [
      {
          "type": "Microsoft.KeyVault/vaults/accessPolicies",
          "apiVersion": "2018-02-14",
          "name": "[concat(parameters('keyVaultName'), '/add')]",
          "properties": {
              "accessPolicies": [
                  {
                      "tenantId": "[parameters('tenantId')]",
                      "objectId": "[parameters('objectId')]",
                      "permissions": {
                          "secrets": "[parameters('secretPermissions')]"
                      }
                  }
              ]
          }
      }
  ]
}